{
  "type": "service_account",
  "project_id": "exercice2-ab407",
  "private_key_id": "ba1ea53c77a798a5773e38722ea9875abbc77612",
  "private_key": "-----BEGIN PRIVATE KEY-----\nMIIEvQIBADANBgkqhkiG9w0BAQEFAASCBKcwggSjAgEAAoIBAQC53eZIRei1btkH\nEXL3zT8q1r3YYq6AbBoGbfWGXi9eKkSuu9ZYQ26w+Fv8WC2JhZVjbBdRlRTd7DWf\nEUEEgpR2VPyxTl2el+HiWBaZADL9Z8V4rsFG4nkrp0XvscxugcYx1PlgTcAl8N59\nTnbDcMjZwoZS/GLUuGrjHhhyhzv3qVP3aW0g2QYgJKcM5j+LYCsCYdWcFqLV+C4n\ntfTWrETi3X8mVx2SjKbyliA2MU8ISFgZbyMAwKzS/e28F9nAdA1I+L0jsVpaakf+\nD10I9nfBuABEw1v8w0E/j9XtfYSOCCkpugmAFnSRgG5NC0U5K2dGwkXj2xfI6gbE\n08YQzRhpAgMBAAECggEAAIqPQGMglhrD5nqYWcRb67g3rW3cnPcl6K6TH+z8T9/N\nwV/jQFgw4MTKGELYwp/kSC2WFMwtkTkozw2GM+LcpnU7TcRaKmqTZ9SOxGJE/aXN\nFPKKYM6k6DwZqwAzRbaV6bnU13TwmcTTpEZeQT13wZj2W+m4Z5+tDEsA9t1FvK7B\nhN2mAi2U7N7FJHkkuB558GwS8McQuKEvejX+yoiPw26eI2i6Ikk1YyURZzen6WIJ\nr7RDIPOCtc95/wGk0lnbFtZIad5aYUlW5m/1bStKvk5uH0jOCHDVk9dvEfUutdgK\n1ClkK5+R7Oe9UMNIxNvqvmifmhRln2d6BagPSvYNgQKBgQD3cY8k+RlNsVlH+xo0\n7NzAtUjqoDWGDJbDDnlJpy7YIlsLuMnz7BH0ktqOEDiMv8KtBfI7/EywECkTT1hP\n/7+oGa5z9eJ8JsSplF4V3FHCoWyWwF2SZq7aJJYE76vFk8Bji1DLiuOt+1U7afme\nm9kBxhjuemjjETxMlkuH9xdJKQKBgQDASz7Aigd5e70gPYEMU71J9M2BKhYA6iWA\nqwX0t2iWEoraGt5W7+B1cO1xF8KDum7uYWfznj1pgsjZM7oA/BQ97fkApuUppOBn\n9FFPoFFWsmsQFw89l2hT3ch6iWKp0LGC0WytUojMsCMDlV+Z3uGEWWFKdcKDrgMJ\ney+J4Kb9QQKBgQDlWNQcqOXTJTZjiVJZC9HwrBbRoXz6qmByms/AfLzmh7Frw/Mr\nqvtZfWQlmNNRYcvHI2PKRaeu6MupojlwrNOvs14HDTjHageORn6ONI9znrtPXy1b\nrOEUQCTsnljP4IrJuS9B+ZHeiL4PO8KqSDlzc3FYWQ0uqaMCOav4cgWbQQKBgGZW\nJTlWvA+dGNPVp54l2rFHRS8edMNb2UWWvv6ztUdY6uiUMAvYcX5O8S6k1HJCf9MB\np87xQgGrBrUBYFYx0Zv7z+7W41K8Wmk4jyVvTppzLaNMgmHm+DDZ8V21S/rQBAh4\n5/t91ywH+Tpo/o3nHeHPp4V3EmP98cPT+ULJelWBAoGAQXSWj0K1+N8eQASaWI5c\nhBpO4n+Y8Bu5zHZd59lThisAGSrAfzSIEMcen5bRlc79GkmXkUaPeKjWxP4qX9Sg\nzYNAKS2CHkOYoi9CQ/05e/uk2ra9bsWBQINdzKAu1jNJ6UNKR4kOZldIhmv3qFLV\nqXEONyVL+7i6BgLIXrHwjvE=\n-----END PRIVATE KEY-----\n",
  "client_email": "firebase-adminsdk-hnrqz@exercice2-ab407.iam.gserviceaccount.com",
  "client_id": "102453262030157547534",
  "auth_uri": "https://accounts.google.com/o/oauth2/auth",
  "token_uri": "https://oauth2.googleapis.com/token",
  "auth_provider_x509_cert_url": "https://www.googleapis.com/oauth2/v1/certs",
  "client_x509_cert_url": "https://www.googleapis.com/robot/v1/metadata/x509/firebase-adminsdk-hnrqz%40exercice2-ab407.iam.gserviceaccount.com"
}
